VPC created on Tue Nov 23 10:08:37 IST 2021 and VPC ID: vpc-03096ec894a1ae08f
VPC created on Thu Nov 25 11:11:15 IST 2021 and VPC ID: vpc-09e7161372a8333dd
VPC created on Thu Nov 25 12:07:10 IST 2021 and VPC ID: vpc-047e41ced4f4f53b6
VPC created on Thu Nov 25 15:26:32 IST 2021 and VPC ID: vpc-0268beee06316a180
VPC created on Wed Dec 22 07:17:20 IST 2021 and VPC ID: vpc-02b1e5c8c33d70911
VPC created on Wed Dec 22 13:49:57 IST 2021 and VPC ID: vpc-00a7881c4d6c4c731
VPC created on Wed Dec 22 17:30:58 IST 2021 and VPC ID: vpc-06da5393d5481d8ba
VPC created on Wed Dec 22 18:09:24 IST 2021 and VPC ID: vpc-0ce0a44123c32a304
VPC created on Wed Dec 22 18:48:15 IST 2021 and VPC ID: vpc-0475c7bd01fff3f8e
VPC created on Thu Dec 23 07:39:28 IST 2021 and VPC ID: vpc-0bfd05ddf2d2fb57f
VPC created on Thu Dec 23 10:05:07 IST 2021 and VPC ID: vpc-025c4f234974bc13c
VPC created on Thu Dec 30 13:50:17 IST 2021 and VPC ID: vpc-075bbf88311579923
VPC created on Thu Dec 30 15:48:07 IST 2021 and VPC ID: vpc-0e524e587e67e9c6f
VPC created on Fri Dec 31 08:38:31 IST 2021 and VPC ID: vpc-01da91a4c1a2507e4
VPC created on Sat Jan 1 06:02:20 IST 2022 and VPC ID: vpc-063592bf66bbe415c
VPC created on Sun Jan 2 09:02:31 IST 2022 and VPC ID: vpc-07b2456bdfba15335
VPC created on Mon Jan 3 07:19:15 IST 2022 and VPC ID: vpc-0b1ccfc81d2c1115a
VPC created on Tue Jan 4 17:21:40 IST 2022 and VPC ID: vpc-0a218019f176d4454
VPC created on Tue Jan 4 18:45:05 IST 2022 and VPC ID: vpc-051d2dff249bb1da2
VPC created on Wed Jan 5 09:01:42 IST 2022 and VPC ID: vpc-0c55acf7ed5d3eeee
VPC created on Thu Jan 13 16:03:40 IST 2022 and VPC ID: vpc-01ee152dac96f5b6b
VPC created on Fri Jan 14 09:08:06 IST 2022 and VPC ID: vpc-04655b34cd5a76fc3
VPC created on Fri Jan 14 09:34:38 IST 2022 and VPC ID: vpc-08ddffe579416b335
VPC created on Mon Jan 17 07:51:28 IST 2022 and VPC ID: vpc-0e234c32d5b569557
VPC created on Tue Jan 18 14:38:00 IST 2022 and VPC ID: vpc-088617d0c750b44c8
VPC created on Wed Jan 19 17:02:09 IST 2022 and VPC ID: vpc-0ba90d0f70a5aa000
VPC created on Fri Jan 21 07:44:43 IST 2022 and VPC ID: vpc-0684420f4870c714e
VPC created on Sat Jan 22 07:50:08 IST 2022 and VPC ID: vpc-017d00e4fc5a080ec
VPC created on Sun May 1 11:49:55 IST 2022 and VPC ID: vpc-05b025082093a1788
VPC created on Sun May 1 16:00:44 IST 2022 and VPC ID: vpc-0d3bfba5af7986e6f
VPC created on Sun May 1 16:48:02 IST 2022 and VPC ID: vpc-0d677d7caa62dc5c6
VPC created on Sun May 1 17:13:38 IST 2022 and VPC ID: vpc-0d2594939bd89f7a0
VPC created on Tue May 3 09:14:42 IST 2022 and VPC ID: vpc-06dd8a36eeb70bb9f
VPC created on Thu May 5 12:08:23 IST 2022 and VPC ID: vpc-0323e9cecdabfc905
VPC created on Thu May 4 18:45:45 IST 2023 and VPC ID: vpc-0f008fa64ce05f185
VPC created on `date` and VPC ID: vpc-0ea96d919065157c0 
VPC created on `date` and VPC ID: vpc-0917ae2e534762e1b 
